Peiyi.H – 身心障礙者人數佔總人口比率-資料取得、整理及視覺化
…
提取出來的資料集，就會包含我們所需要的資料：

df <- read_xlsx("data/2.3.1身心障礙者人數按類別及縣市別分.xlsx", 
          sheet = "2023",
          range = anchored("A8", dim = c(23, 17)),
          col_names = as.character(1:17)) |> #從excel檔中提取所需的資料
select("1", "15","16", "17")  |> #挑選需要的變數
rename("region" = "1",
       "total" = "15",
       "male" = "16",
       "female" = "17") #對變數重新命名

df

# A tibble: 23 × 4
   region                 total  male female
   <chr>                  <dbl> <dbl>  <dbl>
 1 總計  Total             5.19  5.79   4.6 
 2 新北市 New Taipei City  4.44  5.07   3.85
 3 臺北市 Taipei City      4.74  5.33   4.21
 4 桃園市 Taoyuan City     3.96  4.48   3.46
 5 臺中市 Taichung City    4.68  5.28   4.11
 6 臺南市 Tainan City      5.35  5.91   4.8 
 7 高雄市 Kaohsiung City   5.4   5.99   4.84
 8 宜蘭縣 Yilan County     7.06  7.58   6.54
 9 新竹縣 Hsinchu County   4.04  4.6    3.46
10 苗栗縣 Miaoli County    6.32  6.93   5.66
# ℹ 13 more rows
…
整理地區的文字

你可以觀察到，各縣市的文字中包含縣市的英文，為了能將縣市名稱更簡潔的呈現在圖表中，我們要剔除英文名稱。

首先，我們先將地區名稱中英文的部分分開來：

df |> separate_wider_delim(
        cols = region, 
        delim = " ",
        names = c("region", "region_eng"),
        too_many = "drop"
    )

# A tibble: 23 × 5
   region region_eng  total  male female
   <chr>  <chr>       <dbl> <dbl>  <dbl>
 1 總計   ""           5.19  5.79   4.6 
 2 新北市 "New"        4.44  5.07   3.85
 3 臺北市 "Taipei"     4.74  5.33   4.21
 4 桃園市 "Taoyuan"    3.96  4.48   3.46
 5 臺中市 "Taichung"   4.68  5.28   4.11
 6 臺南市 "Tainan"     5.35  5.91   4.8 
 7 高雄市 "Kaohsiung"  5.4   5.99   4.84
 8 宜蘭縣 "Yilan"      7.06  7.58   6.54
 9 新竹縣 "Hsinchu"    4.04  4.6    3.46
10 苗栗縣 "Miaoli"     6.32  6.93   5.66
# ℹ 13 more rows
…
接著我們再把不需要的region_eng丟掉，並將region中的「總計」轉換成「全國」：

df <- df |> separate_wider_delim(
        cols = region, 
        delim = " ",
        names = c("region", "region_eng"),
        too_many = "drop"
    ) |> 
    select(-2) |> 
    mutate(
        region = if_else(region == "總計", "全國", region)
    )
df

# A tibble: 23 × 4
   region total  male female
   <chr>  <dbl> <dbl>  <dbl>
 1 全國    5.19  5.79   4.6 
 2 新北市  4.44  5.07   3.85
 3 臺北市  4.74  5.33   4.21
 4 桃園市  3.96  4.48   3.46
 5 臺中市  4.68  5.28   4.11
 6 臺南市  5.35  5.91   4.8 
 7 高雄市  5.4   5.99   4.84
 8 宜蘭縣  7.06  7.58   6.54
 9 新竹縣  4.04  4.6    3.46
10 苗栗縣  6.32  6.93   5.66
# ℹ 13 more rows
…
pivot_longer 是將原本的資料「拉長」，將存於行標題中的資料放到儲存格裡。

cols指定要轉換的行，我們要將性別的資料放下來到儲存格中，所以設定cols = c("total", "male", "female")。

names_to指定我們放下來的資料那一行的標題名稱，因為是性別資料，因此設定為names_to = "gender"。

原本在"total", "male", "female" 下方的資料是比率，所以透過values_to = "ratio"將它們命名為ratio。

整理完後的資料就會呈現這樣的形式：

# A tibble: 69 × 3
   region gender ratio
   <chr>  <chr>  <dbl>
 1 全國   total   5.19
 2 全國   male    5.79
 3 全國   female  4.6 
 4 新北市 total   4.44
 5 新北市 male    5.07
 6 新北市 female  3.85
 7 臺北市 total   4.74
 8 臺北市 male    5.33
 9 臺北市 female  4.21
10 桃園市 total   3.96
# ℹ 59 more rows
…
直接將縣市標示在圖形旁邊

為了讓讀者更容易辨別每一個線段屬於哪一個縣市，我們可以將縣市的文字標注在線段旁邊。我們首先製作一個資料集用來指定要標記的文字及標注的位置：

loca <- df |> 
    filter(
        gender == "female"
    ) |> 
    mutate(
        position = ratio - .25
    )
loca

# A tibble: 23 × 4
   region gender ratio position
   <chr>  <chr>  <dbl>    <dbl>
 1 全國   female  4.6      4.35
 2 新北市 female  3.85     3.6 
 3 臺北市 female  4.21     3.96
 4 桃園市 female  3.46     3.21
 5 臺中市 female  4.11     3.86
 6 臺南市 female  4.8      4.55
 7 高雄市 female  4.84     4.59
 8 宜蘭縣 female  6.54     6.29
 9 新竹縣 female  3.46     3.21
10 苗栗縣 female  5.66     5.41
# ℹ 13 more rows
…
